timestamp,troughput
11:46:00,NO nodes available
12:01:00,NO nodes available
12:16:00,NO nodes available
12:31:00,NO nodes available
12:46:00,NO nodes available
15:46:24,27
15:49:25,27
15:50:50,27
16:01:25,27
16:04:25,27
16:07:24,27
16:31:25,27
16:35:50,27
16:46:24,28
16:50:49,28
17:16:24,27
17:20:49,27
17:31:25,26
17:35:51,26
17:46:25,26
17:50:51,25
18:01:24,27
18:05:49,26
18:16:24,26
18:20:49,27
18:31:25,26
18:35:49,27
18:46:25,26
18:50:50,26
19:01:24,27
19:05:49,26
19:16:27,24
19:20:52,26
19:31:24,27
19:35:48,28
19:46:24,27
19:50:48,27
20:01:24,27
20:05:48,28
20:16:25,25
20:20:50,27
20:31:24,28
20:35:48,27
20:46:24,27
20:50:48,27
