timestamp,troughput_retransmitted
15:16:28,25
15:20:12,3
15:22:08,7
15:32:06,8
15:35:40,3
15:48:19,3
15:50:56,16
16:01:58,9
16:04:44,13
16:16:39,15
16:19:34,8
16:46:39,16
16:49:20,15
17:01:29,22
17:04:01,20
17:16:33,18
17:19:11,15
17:31:45,12
17:34:36,10
17:46:29,23
17:49:02,18
18:01:27,25
18:03:55,24
18:16:33,21
18:19:00,25
18:31:33,19
18:34:16,13
18:46:28,24
18:48:55,24
19:01:28,23
19:03:56,25
