timestamp,troughput
14:01:00,NO nodes available
14:16:00,NO nodes available
14:31:00,NO nodes available
14:46:00,NO nodes available
15:01:00,NO nodes available
15:16:00,NO nodes available
15:31:00,NO nodes available
15:46:00,NO nodes available
16:01:00,NO nodes available
16:16:00,NO nodes available
16:31:00,NO nodes available
16:46:00,NO nodes available
17:01:00,NO nodes available
